{
    "count": 8334,
    "next": "http://localhost:8000/api/xpaccounts/?page=2",
    "previous": null,
    "results": [
        {
            "id": 5169,
            "advisor": {
                "id": 63,
                "avatar": "https://avatars.slack-edge.com/2022-01-10/2956193274832_e44eb3f8f5bf72167931_512.jpg",
                "first_name": "Leonardo",
                "last_name": "Berardis Linhares",
                "advisor_id": 21828
            },
            "name": "Clube De Investimento Confraria Cc",
            "cpf": "",
            "cnpj": "38313563000102",
            "cellphone": "",
            "phone": "",
            "email": "filipe.possa@gmail.com",
            "income": 0.0,
            "occupation": "CLUBE DE INVESTIMENTO",
            "state": "rj",
            "birth_date": "2020-08-28",
            "suitability": "moderate",
            "suitability_due": "2022-12-14",
            "investor_qualification": "regular",
            "amount": 1393.78,
            "patrimony": 68781.39,
            "created_at": "2021-12-08T19:22:58.347480-03:00",
            "updated_at": "2022-05-06T12:23:08.545596-03:00",
            "xp_updated_at": "2022-05-06T08:56:41.401000-03:00",
            "in_base": true,
            "is_mesa_rv": false,
            "mesa_rv_reference": 0.0,
            "hubspot_id": 564501
        },
        {
            "id": 9259,
            "advisor": {
                "id": 12,
                "avatar": "https://avatars.slack-edge.com/2021-06-29/2210046551335_2a4b00e352bff7e2d742_512.png",
                "first_name": "Jansen",
                "last_name": "Ronconi Portugal",
                "advisor_id": 65210
            },
            "name": "Clube De Investimento Greatsky",
            "cpf": "",
            "cnpj": "10379631000117",
            "cellphone": "",
            "phone": "+55 21 3265-3625",
            "email": "isamarta@gmail.com",
            "income": 0.0,
            "occupation": "CLUBE DE INVESTIMENTO",
            "state": "rj",
            "birth_date": "2008-09-09",
            "suitability": "aggressive",
            "suitability_due": "2023-08-31",
            "investor_qualification": "regular",
            "amount": 188166.48,
            "patrimony": 1578459.33,
            "created_at": "2021-10-13T14:31:45.677148-03:00",
            "updated_at": "2022-05-06T12:22:57.497242-03:00",
            "xp_updated_at": "2022-05-06T11:35:55.554000-03:00",
            "in_base": true,
            "is_mesa_rv": false,
            "mesa_rv_reference": 0.0,
            "hubspot_id": 564551
        },
        {
            "id": 9502,
            "advisor": {
                "id": 12,
                "avatar": "https://avatars.slack-edge.com/2021-06-29/2210046551335_2a4b00e352bff7e2d742_512.png",
                "first_name": "Jansen",
                "last_name": "Ronconi Portugal",
                "advisor_id": 65210
            },
            "name": "Clube De Investimento Top Ações Curto Prazo",
            "cpf": "",
            "cnpj": "20968797000122",
            "cellphone": "",
            "phone": "+55 21 3265-3700",
            "email": "fausto.filho@xpi.com.br",
            "income": 0.0,
            "occupation": "CLUBE DE INVESTIMENTO",
            "state": "rj",
            "birth_date": "2014-08-26",
            "suitability": "out_of_date",
            "suitability_due": "2017-08-14",
            "investor_qualification": "regular",
            "amount": 22.29,
            "patrimony": 22.29,
            "created_at": "2021-10-13T14:32:15.053167-03:00",
            "updated_at": "2022-05-06T12:23:18.064945-03:00",
            "xp_updated_at": "2022-05-06T02:21:00.261000-03:00",
            "in_base": true,
            "is_mesa_rv": false,
            "mesa_rv_reference": 0.0,
            "hubspot_id": 564601
        },
        {
            "id": 9856,
            "advisor": {
                "id": 42,
                "avatar": "https://secure.gravatar.com/avatar/d94304ad690f2b1f47d4902091b285d5.jpg?s=512&d=https%3A%2F%2Fa.slack-edge.com%2Fdf10d%2Fimg%2Favatars%2Fava_0019-512.png",
                "first_name": "Bruno",
                "last_name": "Rodrigo Pereira",
                "advisor_id": 69602
            },
            "name": "Clube De Investimento Servida",
            "cpf": "",
            "cnpj": "34830478000160",
            "cellphone": "",
            "phone": "",
            "email": "paulo.trota@orram.com.br",
            "income": 0.0,
            "occupation": "CLUBE DE INVESTIMENTO",
            "state": "rj",
            "birth_date": "2019-08-27",
            "suitability": "aggressive",
            "suitability_due": "2022-11-27",
            "investor_qualification": "regular",
            "amount": 170355.07,
            "patrimony": 537825.22,
            "created_at": "2021-12-08T19:23:01.311984-03:00",
            "updated_at": "2022-05-06T12:23:00.178899-03:00",
            "xp_updated_at": "2022-05-06T02:22:47.141000-03:00",
            "in_base": true,
            "is_mesa_rv": false,
            "mesa_rv_reference": 0.0,
            "hubspot_id": 564651
        },
        {
            "id": 9874,
            "advisor": {
                "id": 12,
                "avatar": "https://avatars.slack-edge.com/2021-06-29/2210046551335_2a4b00e352bff7e2d742_512.png",
                "first_name": "Jansen",
                "last_name": "Ronconi Portugal",
                "advisor_id": 65210
            },
            "name": "Clube De Investimento Raging Bull And Bear Ii",
            "cpf": "",
            "cnpj": "35475430000144",
            "cellphone": "",
            "phone": "+55 21 3265-3700",
            "email": "matheus.borsoe@hotmail.com",
            "income": 0.0,
            "occupation": "CLUBE DE INVESTIMENTO",
            "state": "rj",
            "birth_date": "2019-10-01",
            "suitability": "aggressive",
            "suitability_due": "2023-01-05",
            "investor_qualification": "regular",
            "amount": 21467.14,
            "patrimony": 21507.65,
            "created_at": "2021-10-13T14:32:02.900976-03:00",
            "updated_at": "2022-05-06T12:23:12.004003-03:00",
            "xp_updated_at": "2022-05-06T11:38:14.650000-03:00",
            "in_base": true,
            "is_mesa_rv": false,
            "mesa_rv_reference": 0.0,
            "hubspot_id": 564701
        },
        {
            "id": 9891,
            "advisor": {
                "id": 12,
                "avatar": "https://avatars.slack-edge.com/2021-06-29/2210046551335_2a4b00e352bff7e2d742_512.png",
                "first_name": "Jansen",
                "last_name": "Ronconi Portugal",
                "advisor_id": 65210
            },
            "name": "Clube De Investimento Raging Bull And Bear I",
            "cpf": "",
            "cnpj": "35608856000129",
            "cellphone": "",
            "phone": "",
            "email": "nfonsec9@gmail.com",
            "income": 0.0,
            "occupation": "CLUBE DE INVESTIMENTO",
            "state": "rj",
            "birth_date": "2019-10-11",
            "suitability": "aggressive",
            "suitability_due": "2022-11-17",
            "investor_qualification": "regular",
            "amount": 4548.43,
            "patrimony": 4548.43,
            "created_at": "2021-10-13T14:32:02.021254-03:00",
            "updated_at": "2022-05-06T12:23:15.042588-03:00",
            "xp_updated_at": "2022-05-06T12:09:33.613000-03:00",
            "in_base": true,
            "is_mesa_rv": false,
            "mesa_rv_reference": 0.0,
            "hubspot_id": 564652
        },
        {
            "id": 9949,
            "advisor": {
                "id": 12,
                "avatar": "https://avatars.slack-edge.com/2021-06-29/2210046551335_2a4b00e352bff7e2d742_512.png",
                "first_name": "Jansen",
                "last_name": "Ronconi Portugal",
                "advisor_id": 65210
            },
            "name": "Clube De Investimento Strong Bull 1",
            "cpf": "",
            "cnpj": "36396890000140",
            "cellphone": "",
            "phone": "",
            "email": "marote.investimentos@gmail.com",
            "income": 0.0,
            "occupation": "CLUBE DE INVESTIMENTO",
            "state": "rj",
            "birth_date": "2020-02-06",
            "suitability": "moderate",
            "suitability_due": "2023-01-15",
            "investor_qualification": "regular",
            "amount": 232.11,
            "patrimony": 232.11,
            "created_at": "2021-10-13T14:31:51.025545-03:00",
            "updated_at": "2022-05-06T12:23:16.883402-03:00",
            "xp_updated_at": "2022-05-06T02:17:48.625000-03:00",
            "in_base": true,
            "is_mesa_rv": false,
            "mesa_rv_reference": 0.0,
            "hubspot_id": 564751
        },
        {
            "id": 20399,
            "advisor": {
                "id": 20,
                "avatar": "https://avatars.slack-edge.com/2021-09-09/2457799385959_9f59f295ec18536cc2d2_512.jpg",
                "first_name": "Nilson",
                "last_name": "Alves da Fonseca",
                "advisor_id": 70684
            },
            "name": "Luis Carlos Nunes De Godoi",
            "cpf": "47772034091",
            "cnpj": "",
            "cellphone": "+55 54 99114-9148",
            "phone": "",
            "email": "godoyluis42@gmail.com",
            "income": 1700.0,
            "occupation": "SUPERIOR, INSPETOR E AGENTE DE COMPRAS E VENDAS",
            "state": "rs",
            "birth_date": "1967-06-12",
            "suitability": "out_of_date",
            "suitability_due": "2014-12-19",
            "investor_qualification": "regular",
            "amount": 0.0,
            "patrimony": 0.0,
            "created_at": "2021-10-06T11:04:48.909751-03:00",
            "updated_at": "2022-05-06T12:23:28.797212-03:00",
            "xp_updated_at": "2022-05-06T08:35:18.015000-03:00",
            "in_base": true,
            "is_mesa_rv": false,
            "mesa_rv_reference": 0.0,
            "hubspot_id": 472701
        },
        {
            "id": 22539,
            "advisor": {
                "id": 5,
                "avatar": "https://avatars.slack-edge.com/2021-06-10/2144673956391_70b96d637f1e15918d94_512.jpg",
                "first_name": "Diego",
                "last_name": "Rodrigues de Oliveira Silva",
                "advisor_id": 26175
            },
            "name": "Rodnei Mauricio Rangel",
            "cpf": "70426015053",
            "cnpj": "",
            "cellphone": "+55 51 98209-3878",
            "phone": "+55 51 3012-4484",
            "email": "rodi23@hotmail.com",
            "income": 20000.0,
            "occupation": "MEDICO",
            "state": "rs",
            "birth_date": "1974-12-23",
            "suitability": "aggressive",
            "suitability_due": "2023-06-16",
            "investor_qualification": "regular",
            "amount": 913.01,
            "patrimony": 382500.04,
            "created_at": "2021-10-06T11:04:48.909751-03:00",
            "updated_at": "2022-05-06T12:23:01.459482-03:00",
            "xp_updated_at": "2022-05-06T12:03:56.770000-03:00",
            "in_base": true,
            "is_mesa_rv": true,
            "mesa_rv_reference": 220000.0,
            "hubspot_id": 472751
        },
        {
            "id": 23007,
            "advisor": {
                "id": 11,
                "avatar": "https://secure.gravatar.com/avatar/9edd7d147cfd1fa92f9a23fee5e3c345.jpg?s=512&d=https%3A%2F%2Fa.slack-edge.com%2Fdf10d%2Fimg%2Favatars%2Fava_0002-512.png",
                "first_name": "Jailson",
                "last_name": "Ronconi Portugal",
                "advisor_id": 54001
            },
            "name": "Raquel Melchior Stefanello",
            "cpf": "65935110059",
            "cnpj": "",
            "cellphone": "+55 51 99124-0240",
            "phone": "+55 51 3012-4484",
            "email": "raque.stefanello@gmail.com",
            "income": 10000.0,
            "occupation": "MEDICO",
            "state": "rs",
            "birth_date": "1974-04-19",
            "suitability": "aggressive",
            "suitability_due": "2023-09-21",
            "investor_qualification": "regular",
            "amount": 20239.57,
            "patrimony": 499204.71,
            "created_at": "2021-10-13T14:31:49.436101-03:00",
            "updated_at": "2022-05-06T12:23:00.430075-03:00",
            "xp_updated_at": "2022-05-06T11:40:19.581000-03:00",
            "in_base": true,
            "is_mesa_rv": false,
            "mesa_rv_reference": 0.0,
            "hubspot_id": 472801
        },
        {
            "id": 27652,
            "advisor": {
                "id": 20,
                "avatar": "https://avatars.slack-edge.com/2021-09-09/2457799385959_9f59f295ec18536cc2d2_512.jpg",
                "first_name": "Nilson",
                "last_name": "Alves da Fonseca",
                "advisor_id": 70684
            },
            "name": "Heber Da Cunha",
            "cpf": "02049229925",
            "cnpj": "",
            "cellphone": "+55 47 99971-5432",
            "phone": "+55 47 3432-5007",
            "email": "heber.gerencia@gmail.com",
            "income": 8000.0,
            "occupation": "ADMINISTRADOR",
            "state": "sc",
            "birth_date": "1975-12-16",
            "suitability": "out_of_date",
            "suitability_due": "2019-07-17",
            "investor_qualification": "regular",
            "amount": 0.0,
            "patrimony": 0.0,
            "created_at": "2021-10-06T11:04:48.909751-03:00",
            "updated_at": "2022-05-06T12:23:28.218071-03:00",
            "xp_updated_at": "2022-05-06T02:14:08.468000-03:00",
            "in_base": true,
            "is_mesa_rv": false,
            "mesa_rv_reference": 0.0,
            "hubspot_id": 564801
        },
        {
            "id": 34682,
            "advisor": {
                "id": 20,
                "avatar": "https://avatars.slack-edge.com/2021-09-09/2457799385959_9f59f295ec18536cc2d2_512.jpg",
                "first_name": "Nilson",
                "last_name": "Alves da Fonseca",
                "advisor_id": 70684
            },
            "name": "Liduina Tamellini De Souza",
            "cpf": "91684056349",
            "cnpj": "",
            "cellphone": "+55 85 98945-9735",
            "phone": "+55 85 98945-9735",
            "email": "liduinatamellini@hotmail.com",
            "income": 20000.0,
            "occupation": "PUBLICITARIO",
            "state": "ce",
            "birth_date": "1977-07-19",
            "suitability": "aggressive",
            "suitability_due": "2022-12-21",
            "investor_qualification": "regular",
            "amount": 0.4,
            "patrimony": 0.4,
            "created_at": "2021-10-06T11:04:48.909751-03:00",
            "updated_at": "2022-05-06T12:23:19.109414-03:00",
            "xp_updated_at": "2022-05-06T01:40:23.595000-03:00",
            "in_base": true,
            "is_mesa_rv": false,
            "mesa_rv_reference": 0.0,
            "hubspot_id": 472851
        },
        {
            "id": 35591,
            "advisor": {
                "id": 20,
                "avatar": "https://avatars.slack-edge.com/2021-09-09/2457799385959_9f59f295ec18536cc2d2_512.jpg",
                "first_name": "Nilson",
                "last_name": "Alves da Fonseca",
                "advisor_id": 70684
            },
            "name": "Gerson Luis Dullius",
            "cpf": "51026589053",
            "cnpj": "",
            "cellphone": "",
            "phone": "",
            "email": "gerson.dullius@gmail.com",
            "income": 2500.0,
            "occupation": "ADMINISTRADOR",
            "state": "rs",
            "birth_date": "1967-07-22",
            "suitability": "moderate",
            "suitability_due": "2023-03-24",
            "investor_qualification": "regular",
            "amount": 0.0,
            "patrimony": 78153.93,
            "created_at": "2021-10-06T11:04:48.909751-03:00",
            "updated_at": "2022-05-06T12:23:07.955363-03:00",
            "xp_updated_at": "2022-05-06T11:10:31.284000-03:00",
            "in_base": true,
            "is_mesa_rv": false,
            "mesa_rv_reference": 0.0,
            "hubspot_id": 472901
        },
        {
            "id": 35992,
            "advisor": {
                "id": 99,
                "avatar": "https://secure.gravatar.com/avatar/09f125e6f584a14b27f8d51a70f183c2.jpg?s=512&d=https%3A%2F%2Fa.slack-edge.com%2Fdf10d%2Fimg%2Favatars%2Fava_0007-512.png",
                "first_name": "Antônio",
                "last_name": "Rogerio Baliego",
                "advisor_id": 68396
            },
            "name": "Adriano Marcelo Marqueze",
            "cpf": "46475834149",
            "cnpj": "",
            "cellphone": "+55 11 96310-0379",
            "phone": "+55 11 3477-2968",
            "email": "marquezea@hotmail.com",
            "income": 32000.0,
            "occupation": "ANALISTA DE SISTEMAS",
            "state": "sp",
            "birth_date": "1971-08-12",
            "suitability": "aggressive",
            "suitability_due": "2022-08-24",
            "investor_qualification": "qualified",
            "amount": 35971.46,
            "patrimony": 165331.17,
            "created_at": "2022-02-23T22:34:09.483894-03:00",
            "updated_at": "2022-05-06T12:23:04.822032-03:00",
            "xp_updated_at": "2022-05-06T02:12:43.979000-03:00",
            "in_base": true,
            "is_mesa_rv": false,
            "mesa_rv_reference": 0.0,
            "hubspot_id": 472951
        },
        {
            "id": 41555,
            "advisor": {
                "id": 5,
                "avatar": "https://avatars.slack-edge.com/2021-06-10/2144673956391_70b96d637f1e15918d94_512.jpg",
                "first_name": "Diego",
                "last_name": "Rodrigues de Oliveira Silva",
                "advisor_id": 26175
            },
            "name": "Paulo Celestino Bittencourt Kisner",
            "cpf": "00761218955",
            "cnpj": "",
            "cellphone": "+55 12 99212-8431",
            "phone": "+55 12 99212-8431",
            "email": "paulo.kisner@yahoo.com.br",
            "income": 17000.0,
            "occupation": "ADVOGADO",
            "state": "sp",
            "birth_date": "1981-01-13",
            "suitability": "aggressive",
            "suitability_due": "2023-06-07",
            "investor_qualification": "regular",
            "amount": 30.96,
            "patrimony": 434812.75,
            "created_at": "2021-10-06T11:04:48.909751-03:00",
            "updated_at": "2022-05-06T12:23:00.828821-03:00",
            "xp_updated_at": "2022-05-06T09:56:07.076000-03:00",
            "in_base": true,
            "is_mesa_rv": false,
            "mesa_rv_reference": 0.0,
            "hubspot_id": 564851
        },
        {
            "id": 42178,
            "advisor": {
                "id": 59,
                "avatar": "https://avatars.slack-edge.com/2022-01-11/2932749294789_14209ecaf199e6dd8ee7_512.png",
                "first_name": "Fernando",
                "last_name": "Kobuti Ferreira",
                "advisor_id": 68334
            },
            "name": "Fabio Tianhao Ji",
            "cpf": "37034956855",
            "cnpj": "",
            "cellphone": "+55 11 98489-1419",
            "phone": "+55 11 3262-3576",
            "email": "do_binho@hotmail.com",
            "income": 2500.0,
            "occupation": "ESTUDANTE",
            "state": "sp",
            "birth_date": "1988-08-18",
            "suitability": "out_of_date",
            "suitability_due": "2022-03-10",
            "investor_qualification": "regular",
            "amount": 20410.3,
            "patrimony": 103880.15,
            "created_at": "2021-12-08T19:22:58.626610-03:00",
            "updated_at": "2022-05-06T12:23:06.853419-03:00",
            "xp_updated_at": "2022-05-06T02:06:33.231000-03:00",
            "in_base": true,
            "is_mesa_rv": false,
            "mesa_rv_reference": 0.0,
            "hubspot_id": 473001
        },
        {
            "id": 43742,
            "advisor": {
                "id": 20,
                "avatar": "https://avatars.slack-edge.com/2021-09-09/2457799385959_9f59f295ec18536cc2d2_512.jpg",
                "first_name": "Nilson",
                "last_name": "Alves da Fonseca",
                "advisor_id": 70684
            },
            "name": "Rafaella Locatelli Correa Ribeiro",
            "cpf": "04530298922",
            "cnpj": "",
            "cellphone": "+55 41 99917-2262",
            "phone": "+55 41 3206-9044",
            "email": "rafaellalocatelli@gmail.com",
            "income": 4500.0,
            "occupation": "ECONOMISTA",
            "state": "pr",
            "birth_date": "1985-05-25",
            "suitability": "out_of_date",
            "suitability_due": "2019-04-25",
            "investor_qualification": "regular",
            "amount": 15.67,
            "patrimony": 15.67,
            "created_at": "2021-10-06T11:04:48.909751-03:00",
            "updated_at": "2022-05-06T12:23:18.239361-03:00",
            "xp_updated_at": "2022-05-06T01:40:21.117000-03:00",
            "in_base": true,
            "is_mesa_rv": false,
            "mesa_rv_reference": 0.0,
            "hubspot_id": 564901
        },
        {
            "id": 45309,
            "advisor": {
                "id": 59,
                "avatar": "https://avatars.slack-edge.com/2022-01-11/2932749294789_14209ecaf199e6dd8ee7_512.png",
                "first_name": "Fernando",
                "last_name": "Kobuti Ferreira",
                "advisor_id": 68334
            },
            "name": "Cheng Donglan",
            "cpf": "21259292878",
            "cnpj": "",
            "cellphone": "+55 11 99505-0038",
            "phone": "+55 11 98489-1419",
            "email": "do_binho@hotmail.com",
            "income": 50000.0,
            "occupation": "COMERCIO ATACADISTA",
            "state": "sp",
            "birth_date": "1962-07-01",
            "suitability": "moderate",
            "suitability_due": "2024-02-25",
            "investor_qualification": "regular",
            "amount": 80710.11,
            "patrimony": 2322234.43,
            "created_at": "2021-12-08T19:23:02.856227-03:00",
            "updated_at": "2022-05-06T12:22:57.110852-03:00",
            "xp_updated_at": "2022-05-06T12:21:13.496000-03:00",
            "in_base": true,
            "is_mesa_rv": false,
            "mesa_rv_reference": 0.0,
            "hubspot_id": 473051
        },
        {
            "id": 45857,
            "advisor": {
                "id": 5,
                "avatar": "https://avatars.slack-edge.com/2021-06-10/2144673956391_70b96d637f1e15918d94_512.jpg",
                "first_name": "Diego",
                "last_name": "Rodrigues de Oliveira Silva",
                "advisor_id": 26175
            },
            "name": "Guilherme Basile Filho",
            "cpf": "36347205068",
            "cnpj": "",
            "cellphone": "+55 51 98415-1258",
            "phone": "+55 51 3588-1258",
            "email": "guilhermebfilho@hotmail.com",
            "income": 10000.0,
            "occupation": "MEDICO",
            "state": "rs",
            "birth_date": "1960-01-09",
            "suitability": "aggressive",
            "suitability_due": "2023-09-09",
            "investor_qualification": "regular",
            "amount": 3322.59,
            "patrimony": 555608.49,
            "created_at": "2021-10-06T11:04:48.909751-03:00",
            "updated_at": "2022-05-06T12:23:00.045451-03:00",
            "xp_updated_at": "2022-05-06T10:18:13.045000-03:00",
            "in_base": true,
            "is_mesa_rv": true,
            "mesa_rv_reference": 388000.0,
            "hubspot_id": 473101
        },
        {
            "id": 46153,
            "advisor": {
                "id": 65,
                "avatar": "https://avatars.slack-edge.com/2022-01-10/2932840326387_f4a6dddcb6edf2c2afdf_512.jpg",
                "first_name": "Luis",
                "last_name": "Guilherme Ramos de Almeida",
                "advisor_id": 68603
            },
            "name": "Paulo Correa Meyer",
            "cpf": "09102637871",
            "cnpj": "",
            "cellphone": "+55 11 99748-4668",
            "phone": "+55 11 4153-5004",
            "email": "pcmeyer100@gmail.com",
            "income": 10000.0,
            "occupation": "ADMINISTRADOR",
            "state": "sp",
            "birth_date": "1966-10-20",
            "suitability": "out_of_date",
            "suitability_due": "2019-06-19",
            "investor_qualification": "regular",
            "amount": 0.0,
            "patrimony": 0.0,
            "created_at": "2021-12-08T19:22:55.365562-03:00",
            "updated_at": "2022-05-06T12:23:28.234136-03:00",
            "xp_updated_at": "2022-05-06T01:53:23.731000-03:00",
            "in_base": true,
            "is_mesa_rv": false,
            "mesa_rv_reference": 0.0,
            "hubspot_id": 181404
        }
    ]
}